webpack dist/admin/main-admin.js web/js/main-admin.js --watch --optimize-minimize

IP: 91.218.214.18

ftp
login: fbu
passwd: wgWYyJ5JoHYgwo

mysql
login: fbu
passwd: 2wc5euAV0Mx68gpJ@
host: localhost
db: fbu_db
http://91.218.214.18/phpmyadmin/

********* admin.fbu.ua
maxim
bukachmaksim
---------------

acc00703.ftp.tools
acc00703_ftp
bJAUA9nyUQ

-------------------

hs211547.ftp.tools
hs211547_fbu
9c581rti

********************

http://fbu.digital-promo.com.ua/
http://fbu.ua/statistics/league-224/leaders